{
    "workflowApiVersion": "1.1",
    "metaData": {
        "icon": "images/sms.png",
        "iconSmall": "images/smsSmall.png",
        "category": "message"
    },
    "type": "REST",
    "lang": {
        "en-US": {
            "name": "gitlab_custom_activity",
            "description": "gitlab_custom_activity"
        }
    },
    "arguments": {
        "execute": {
            "inArguments": [],
            "outArguments": [],
            "url": "https://ptsv2.com/t/gitlab_custom_activity_exe/post",
            "verb": "POST",
            "body": "{\"Email\": \"%%emailAddr%%\", \"First Name\": \"%%FirstName%%\", \"Last Name\": \"%%LastName%%\"}",
            "header": "",
            "useJwt": false,
            "customerKey" : "38248548-bfb2-4f87-b47f-e99e6ee85ed6",
            "timeout": 10000
             
        }
    },
    "configurationArguments": {
        "applicationExtensionKey": "38248548-bfb2-4f87-b47f-e99e6ee85ed6",
        "save": {
            "url": "https://ptsv2.com/t/gitlab_custom_activity_save/post",
            "body": "{\"Email\": \"%%emailAddr%%\", \"First Name\": \"%%FirstName%%\", \"Last Name\": \"%%LastName%%\"}",
            "header": "",
            "verb": "POST",
            "useJwt": false
        },
        "publish": {
             "url": "https://ptsv2.com/t/gitlab_custom_activity_pub/post",
            "verb": "POST",
            "body": "{\"Email\": \"%%emailAddr%%\", \"First Name\": \"%%FirstName%%\", \"Last Name\": \"%%LastName%%\"}",
            "header": "",
            "useJwt": false
        },
            "unpublish": {
            "url": "https://ptsv2.com/t/gitlab_custom_activity_unsub/post",
            "verb": "POST",
            "body": "{\"Email\": \"%%emailAddr%%\", \"First Name\": \"%%FirstName%%\", \"Last Name\": \"%%LastName%%\"}",
            "header": "",
            "useJwt": false
        },
        "validate": {
            "url": "https://ptsv2.com/t/gitlab_custom_activity_val/post",
            "verb": "POST",
            "body": "{\"Email\": \"%%emailAddr%%\", \"First Name\": \"%%FirstName%%\", \"Last Name\": \"%%LastName%%\"}",
            "header": "",
            "useJwt": false
        }
    },
    "wizardSteps": [
        { "label": "Step 1", "key": "step1" },
        { "label": "Step 2", "key": "step2" },
        { "label": "Step 3", "key": "step3" },
        { "label": "Step 4", "key": "step4", "active": false }
    ],
    "userInterfaces": {
        "configModal": {
            "height": 200,
            "width": 300,
            "fullscreen": true
        }
    }
}